An R Wrapper for the Dutch Chamber of Commerce API • kvkapiR
…
To install the latest development version:

# install.packages("devtools")
devtools::install_github("coeneisma/kvkapiR", ref = "development")

Example

Here are basic examples demonstrating how to use the kvk_search() function to retrieve KvK registrations:

library(kvkapiR)

koudum <- kvk_search(plaats = "Koudum")
koudum
#> # A tibble: 513 × 6
#>    kvkNummer vestigingsnummer naam                     adres        type  links 
#>    <chr>     <chr>            <chr>                    <list>       <chr> <list>
#>  1 01036576  000007810083     Stichting Gemeenschapsc… <named list> neve… <list>
#>  2 60112891  000045511098     Corriente 't Kofjehúske  <named list> neve… <list>
#>  3 92692966  000032358083     M. de Boer               <named list> neve… <list>
#>  4 40005051  000021251479     Bogerman                 <named list> neve… <list>
#>  5 30168016  000057781184     It Fûgelnêst             <named list> neve… <list>
#>  6 58496505  000027833429     HFK Verhuur              <named list> hoof… <list>
#>  7 62724843  000031708129     De Klink Exploitatie B.… <named list> hoof… <list>
#>  8 01123666  000040288196     Winterberging IJzendoorn <named list> hoof… <list>
#>  9 40001473  000000303062     De Sândobbe              <named list> hoof… <list>
#> 10 01091668  000000678279     Multiservice Beheer en … <named list> hoof… <list>
#> # ℹ 503 more rows

You can also combine multiple search parameters:

library(kvkapiR)

rotterdam <- kvk_search(naam = "huisartsen", plaats = "Rotterdam")
rotterdam
#> # A tibble: 200 × 7
#>    kvkNummer vestigingsnummer naam       adres        type  links  vervallenNaam
#>    <chr>     <chr>            <chr>      <list>       <chr> <list> <chr>        
#>  1 24475068  000009219072     Wijkprakt… <named list> hoof… <list> <NA>         
#>  2 81943938  000048204625     Jans Huis… <named list> hoof… <list> <NA>         
#>  3 24484189  000016351312     Sanitas H… <named list> neve… <list> <NA>         
#>  4 24477358  000010787356     Van Schai… <named list> hoof… <list> <NA>         
#>  5 66346339  000034979034     Huisartse… <named list> hoof… <list> <NA>         
#>  6 54446538  000024210382     Huisartse… <named list> hoof… <list> <NA>         
#>  7 62380281  000031391419     Huisartse… <named list> hoof… <list> <NA>         
#>  8 24484189  000036373648     Sanitas H… <named list> hoof… <list> <NA>         
#>  9 85464007  000051508060     itj huisa… <named list> hoof… <list> <NA>         
#> 10 24476795  000010613765     Baggerman… <named list> hoof… <list> <NA>         
#> # ℹ 190 more rows
…
