…
## Basic Usage

### Search for Businesses

``` r
library(kvkapiR)

# Search by location
koudum <- kvk_search(plaats = "Koudum")
koudum
#> # A tibble: 512 × 6
#>    kvkNummer vestigingsnummer naam                     adres        type  links 
#>    <chr>     <chr>            <chr>                    <list>       <chr> <list>
#>  1 01036576  000007810083     Stichting Gemeenschapsc… <named list> neve… <list>
#>  2 92692966  000032358083     M. de Boer               <named list> neve… <list>
#>  3 60112891  000045511098     Corriente 't Kofjehúske  <named list> neve… <list>
#>  4 40005051  000021251479     Bogerman                 <named list> neve… <list>
#>  5 30168016  000057781184     It Fûgelnêst             <named list> neve… <list>
#>  6 01123666  000040288196     Winterberging IJzendoorn <named list> hoof… <list>
#>  7 58496505  000027833429     HFK Verhuur              <named list> hoof… <list>
#>  8 62724843  000031708129     De Klink Exploitatie B.… <named list> hoof… <list>
#>  9 01091668  000000678279     Multiservice Beheer en … <named list> hoof… <list>
#> 10 41005555  000021707499     Stichting Jongerenwerk … <named list> hoof… <list>
#> # ℹ 502 more rows
…
