kvkapiR • kvkapiR
…
Dit package kvkapiR is niks anders dan een simpele
wrapper om de Kvk-API. Hiernaast worden een aantal voorbeelden gegeven
van mogelijke zoekopdrachten en het resultaat dat door de package wordt
gegeven.

Example 1: single variable, less then 1.000 records

Lets start with searching for KvK registrations in the village of Koudum.
As this is a relative small village with less entries than the maximum
(API limit) of 1.000 records, all records are retrieved:

koudum <- kvk_search(plaats = "Koudum")
koudum
#> # A tibble: 513 × 6
#>    kvkNummer vestigingsnummer naam                     adres        type  links 
#>    <chr>     <chr>            <chr>                    <list>       <chr> <list>
#>  1 01036576  000007810083     Stichting Gemeenschapsc… <named list> neve… <list>
#>  2 60112891  000045511098     Corriente 't Kofjehúske  <named list> neve… <list>
#>  3 92692966  000032358083     M. de Boer               <named list> neve… <list>
#>  4 40005051  000021251479     Bogerman                 <named list> neve… <list>
#>  5 30168016  000057781184     It Fûgelnêst             <named list> neve… <list>
#>  6 58496505  000027833429     HFK Verhuur              <named list> hoof… <list>
#>  7 62724843  000031708129     De Klink Exploitatie B.… <named list> hoof… <list>
#>  8 01123666  000040288196     Winterberging IJzendoorn <named list> hoof… <list>
#>  9 40001473  000000303062     De Sândobbe              <named list> hoof… <list>
#> 10 01091668  000000678279     Multiservice Beheer en … <named list> hoof… <list>
#> # ℹ 503 more rows

Example 2: single variable, more then 1.000 records

The city of
Rotterdam is much bigger than Koudum. So searching for all entries
in Rotterdam will definately result in more then 1.000 records. When
this happens, a warning will be displayed:

rotterdam <- kvk_search(plaats = "Rotterdam")
#> Warning in kvk_search(plaats = "Rotterdam"): API response contains more than
#> 1,000 results. Only the first 1,000 will be retrieved.
rotterdam
#> # A tibble: 1,000 × 6
#>    kvkNummer vestigingsnummer naam                     adres        type  links 
#>    <chr>     <chr>            <chr>                    <list>       <chr> <list>
#>  1 41132991  000023110112     Stichting Albeda         <named list> neve… <list>
#>  2 41132991  000023110597     Stichting Albeda         <named list> neve… <list>
#>  3 41132991  000023110600     Stichting Albeda         <named list> neve… <list>
#>  4 41132991  000023110619     Stichting Albeda         <named list> neve… <list>
#>  5 41132991  000023113456     Stichting Albeda         <named list> neve… <list>
#>  6 24483298  000023336749     Klooster Afrikaander     <named list> neve… <list>
#>  7 24483298  000024590444     Stadsarchief Rotterdam   <named list> neve… <list>
#>  8 24193887  000024452262     Meertens B.V.            <named list> neve… <list>
#>  9 34360247  000022666397     UWV WERKbedrijf Rotterd… <named list> neve… <list>
#> 10 24483298  000022493352     Gemeentewerken Rotterda… <named list> neve… <list>
#> # ℹ 990 more rows
…
